{
    "pirat" : {
        
        "template_library_name": "pirat",
        "object_class": "irat"
    },
    "irat-old" : {
        "template_library_name": "irat-old",
        "object_class": "irat"
    },
	"real-rat"  : {
        "template_library_name": "lib_a0",
        "object_class": "rat"
    }
}